{
  "Loan": {
    "name": "Loan",
    "type": "collection",
    "organization": "ALFA",
    "receiver": true,
    "key_field_listeners": {
      "invoice": {
        "amount_total": {
          "name": "Amount Total",
          "signals": [
            "calculate_invoice_expense_totals"
          ]
        }
      },
      "expense": {
        "amount_total": {
          "name": "Invoice Total",
          "signals": [
            "calculate_expense_totals",
            "calculate_net_income"
          ]
        },
        "sender_name": {
          "name": "Name of Sender",
          "signals": [
            "collect_expense_senders"
          ]
        },
        "account_num": {
          "name": "Account Number",
          "signals": [
            "collect_expense_accounts"
          ]
        }
      },
      "gusto_ppp_forgiveness_report": {
        "borrower_name": {
          "name": "borrower_name",
          "signals": [
            "direct_update"
          ]
        },
        "borrower_address": {
          "name": "borrower_address",
          "signals": [
            "direct_update"
          ]
        },
        "fein": {
          "name": "fein",
          "signals": [
            "direct_update"
          ]
        },
        "covered_period": {
          "name": "covered_period",
          "signals": [
            "process_covered_period"
          ]
        },
        "total_loan_amount": {
          "name": "total_loan_amount",
          "signals": [
            "direct_update",
            "process_accrued_interest"
          ]
        },
        "schedule_a": {
          "name": "schedule_a",
          "signals": [
            "update_schedule_a_data"
          ]
        },
        "schedule_a_worksheet": {
          "name": "schedule_a_worksheet",
          "signals": [
            "direct_update"
          ]
        },
        "schedule_a_worksheet_more_than_100k": {
          "name": "schedule_a_worksheet_more_than_100k",
          "signals": [
            "direct_update"
          ]
        },
        "reduction": {
          "name": "reduction",
          "signals": [
            "direct_update"
          ]
        },
        "alerts": {
          "name": "alerts",
          "signals": [
            "update_alerts"
          ]
        }
      },
      "account": {
        "transactions": {
          "name": "transactions",
          "signals": [
            "direct_update"
          ]
        }
      },
      "sba_form_2483": {
        "dba": {
          "name": "dba",
          "signals": [
            "direct_update"
          ]
        },
        "address": {
          "name": "address",
          "signals": [
            "direct_update"
          ]
        },
        "tin": {
          "name": "tin",
          "signals": [
            "direct_update"
          ]
        },
        "phone": {
          "name": "phone",
          "signals": [
            "direct_update"
          ]
        },
        "contact": {
          "name": "contact",
          "signals": [
            "direct_update"
          ]
        },
        "email": {
          "name": "email",
          "signals": [
            "direct_update"
          ]
        },
        "no_employees": {
          "name": "email",
          "signals": [
            "direct_update"
          ]
        }
      }
    },
    "key_fields": {
      "transactions": {
        "default_value": {},
        "name": "transactions",
        "signals": [
          "filter_transactions"
        ]
      },
      "filtered_transactions": {
        "default_value": {},
        "name": "filtered transactions",
        "signals": [
          "process_filtered_transactions"
        ]
      },
      "ppp_loan_number": {
        "default_value": ""
      },
      "lender_loan_number": {
        "default_value": ""
      },
      "forgiveness_state": {
        "default_value": "New"
      },
      "accrued_interest": {
        "default_value": 0.00,
        "formatter": "decimal"
      },
      "alerts": {
        "default_value": []
      },
      "address": {
        "default_value": ""
      },
      "borrower_address": {
        "default_value": ""
      },
      "borrower_name": {
        "default_value": ""
      },
      "contact": {
        "default_value": ""
      },
      "covered_period_start": {
        "default_value": "",
        "signals": [
          "calculate_forgiveness_period"
        ]
      },
      "covered_period_end": {
        "default_value": ""
      },
      "dba": {
        "default_value": ""
      },
      "disbursement_date": {
        "default_value": "",
        "signals": [
          "calculate_forgiveness_period"
        ]
      },
      "email": {
        "default_value": ""
      },
      "fein": {
        "default_value": ""
      },
      "interest_rate": {
        "default_value": 1.00,
        "formatter": "decimal"
      },
      "mortgage_expense_total": {
        "default_value": 0.00,
        "formatter": "dollar",
        "signals": [
          "calc_ppp_line_6",
          "calc_non_payroll_expense_total"
        ]
      },
      "no_employees": {
        "default_value": 0,
        "formatter": "integer"
      },
      "non_payroll_expense_total": {
        "default_value": 0.00,
        "formatter": "dollar"
      },
      "phone": {
        "default_value": ""
      },
      "rent_expense_total": {
        "default_value": 0.00,
        "formatter": "dollar",
        "signals": [
          "calc_ppp_line_6",
          "calc_non_payroll_expense_total"
        ]
      },
      "schedule_line_1": {
        "default_value": "$0.00",
        "formatter": "dollar",
        "signals": [
          "calc_schedule_line_10"
        ]
      },
      "schedule_line_2": {
        "default_value": "0.00",
        "formatter": "decimal",
        "signals": [
          "calculate_schedule_line_12"
        ]
      },
      "schedule_line_3": {
        "default_value": "$0.00",
        "formatter": "dollar",
        "signals": [
          "calc_ppp_line_6"
        ]
      },
      "schedule_line_4": {
        "default_value": "0.00",
        "formatter": "dollar",
        "signals": [
          "calc_schedule_line_10"
        ]
      },
      "schedule_line_5": {
        "default_value": "0.00",
        "formatter": "decimal",
        "signals": [
          "calculate_schedule_line_12"
        ]
      },
      "schedule_line_6": {
        "default_value": "$0.00",
        "formatter": "dollar",
        "signals": [
          "calc_ppp_line_8",
          "calc_schedule_line_10"
        ]
      },
      "schedule_line_7": {
        "default_value": "$0.00",
        "formatter": "dollar",
        "signals": [
          "calc_schedule_line_10"
        ]
      },
      "schedule_line_8": {
        "default_value": "$0.00",
        "formatter": "dollar",
        "signals": [
          "calc_schedule_line_10"
        ]
      },
      "schedule_line_9": {
        "default_value": "0.00",
        "formatter": "dollar",
        "signals": [
          "calc_schedule_line_10"
        ]
      },
      "schedule_line_10": {
        "default_value": "0.00",
        "formatter": "dollar",
        "signals": [
          "calc_ppp_line_6",
          "calc_ppp_line_10"
        ]
      },
      "schedule_line_11": {
        "default_value": "$0.00",
        "formatter": "decimal"
      },
      "schedule_line_12": {
        "default_value": "0.00",
        "formatter": "decimal"
      },
      "schedule_line_13": {
        "default_value": "$0.00",
        "formatter": "decimal",
        "signals": [
          "calc_ppp_line_8"
        ]
      },
      "ppp_line_6": {
        "default_value": "$0.00",
        "formatter": "dollar",
        "signals": [
          "calc_ppp_line_8"
        ]
      },
      "ppp_line_8": {
        "default_value": "$0.00",
        "formatter": "dollar",
        "signals": [
          "calc_ppp_line_11"
        ]
      },
      "ppp_line_10": {
        "default_value": "$0.00",
        "formatter": "dollar",
        "signals": [
          "calc_ppp_line_11"
        ]
      },
      "ppp_line_11": {
        "default_value": "$0.00",
        "formatter": "dollar"
      },
      "schedule_a_worksheet": {
        "type": "table",
        "default_value": [],
        "signals": [
          "calc_box_1_2",
          "reprocess_reductions"
        ]
      },
      "schedule_a_worksheet_more_than_100k": {
        "type": "table",
        "default_value": [],
        "signals": [
          "calc_box_4_5"
        ]
      },
      "reduction": {
        "type": "table",
        "default_value": [],
        "signals": [
          "calc_box_3"
        ]
      },
      "tin": {
        "default_value": ""
      },
      "total_loan_amount": {
        "default_value": 0.00,
        "formatter": "dollar",
        "signals": [
          "calc_ppp_line_11"
        ]
      },
      "utilities_expense_total": {
        "default_value": 0.00,
        "formatter": "dollar",
        "signals": [
          "calc_ppp_line_6",
          "calc_non_payroll_expense_total"
        ]
      }
    },
    "key_field_property": "collection_data"
  },
  "invoice": {
    "name": "invoice",
    "type": "document",
    "receivers": [
      "Loan"
    ],
    "organization": "ALFA",
    "schema": {
      "key_fields": {
        "amount_total": {
          "name": "amount_total"
        }
      }
    }
  },
  "expense": {
    "name": "expense",
    "type": "document",
    "receivers": [
      "Loan"
    ],
    "organization": "ALFA",
    "schema": {
      "key_fields": {
        "amount_total": {
          "name": "expense_total"
        },
        "sender_name": {
          "name": "expense_sender"
        },
        "account_num": {
          "name": "account_number"
        }
      }
    }
  },
  "gusto_ppp_forgiveness_report": {
    "name": "gusto_ppp_forgiveness_report",
    "type": "document",
    "singular": true,
    "receivers": [
      "Loan"
    ],
    "extraction": "extract_gusto_ppp_report",
    "organization": "ALFA",
    "schema": {
      "key_fields": {
        "borrower_name": {
          "name": "borrower_name"
        },
        "borrower_address": {
          "name": "borrower_address"
        },
        "schedule_a": {
          "name": "schedule_a"
        },
        "schedule_a_worksheet": {
          "name": "schedule_a_worksheet"
        }
      }
    }
  },
  "account": {
    "name": "account",
    "type": "api",
    "receivers": [
      "Loan"
    ],
    "organization": "ALFA",
    "extraction": "extract_account_data",
    "schema": {
      "key_fields": {
        "transactions": {
          "name": "transactions"
        }
      }
    }
  },
  "payroll": {
    "name": "payroll_account",
    "type": "api",
    "receivers": [
      "Loan"
    ],
    "organization": "ALFA",
    "extraction": "extract_payroll_data",
    "schema": {
      "key_fields": {
        "transactions": {
          "name": "transactions"
        }
      }
    }
  },
  "sba_form_2483": {
    "name": "sba_form_2483",
    "type": "api",
    "singular": true,
    "receivers": [
      "Loan"
    ],
    "organization": "ALFA",
    "schema": {
      "key_fields": {
        "dba": {
          "name": "dba"
        },
        "address": {
          "name": "address"
        },
        "tin": {
          "name": "tin"
        },
        "phone": {
          "name": "phone"
        },
        "contact": {
          "name": "contact"
        },
        "email": {
          "name": "email"
        },
        "no_employees": {
          "name": "email"
        }
      }
    }
  }
}
