[
  {
    "model": "custom_auth.role",
    "pk": 1,
    "fields": {
      "created_at": "2019-11-25T23:36:26.012Z",
      "updated_at": "2019-11-25T23:36:26.012Z",
      "name": "User",
      "description": "This role is for client user",
      "code": 1
    }
  },
  {
    "model": "custom_auth.role",
    "pk": 2,
    "fields": {
      "created_at": "2019-11-25T23:36:26.012Z",
      "updated_at": "2019-11-25T23:36:26.012Z",
      "name": "Admin",
      "description": "This role is for client admin",
      "code": 2
    }
  },
    {
    "model": "custom_auth.role",
    "pk": 3,
    "fields": {
      "created_at": "2019-11-25T23:36:26.012Z",
      "updated_at": "2019-11-25T23:36:26.012Z",
      "name": "account_user",
      "description": "This role is for client user",
      "code": 3
    }
  },
  {
    "model": "custom_auth.role",
    "pk": 4,
    "fields": {
      "created_at": "2019-11-25T23:36:26.012Z",
      "updated_at": "2019-11-25T23:36:26.012Z",
      "name": "account_manager",
      "description": "Account Manager",
      "code": 4
    }
  }

]
