{
  "WorkItem": {
    "name": "WorkItem",
    "type": "collection",
    "organization": "APEX",
    "receiver": true,
    "key_field_listeners": {
      "purchase_order": {
        "vendor_number": {
          "name": "Vendor Number",
          "signals": [
            "direct_update"
          ]
        },
        "po_number": {
          "name": "Purchase Order Number",
          "signals": [
            "direct_update"
          ]
        },
        "tax_total": {
          "name": "Tax",
          "signals": [
            "direct_update"
          ]
        },
        "freight": {
          "name": "Freight",
          "signals": [
            "direct_update"
          ]
        },
        "sub_total": {
          "name": "Subtotal",
          "signals": [
            "direct_update"
          ]
        },
        "total_amount": {
          "name": "Total",
          "signals": [
            "direct_update"
          ]
        }
      },
      "invoice": {
        "vendor_number": {
          "name": "Vendor Number",
          "signals": [
            "direct_update"
          ]
        },
        "po_number": {
          "name": "Purchase Order Number",
          "signals": [
            "direct_update"
          ]
        },
        "remittance_address": {
          "name": "Remittance Address",
          "signals": [
            "direct_update"
          ]
        },
        "payment_terms": {
          "name": "Payment Terms",
          "signals": [
            "direct_update"
          ]
        },
        "tax_total": {
          "name": "Tax",
          "signals": [
            "direct_update"
          ]
        },
        "freight": {
          "name": "Freight",
          "signals": [
            "direct_update"
          ]
        },
        "sub_total": {
          "name": "Subtotal",
          "signals": [
            "direct_update"
          ]
        },
        "total_amount": {
          "name": "Total",
          "signals": [
            "direct_update"
          ]
        },
        "invoice_due_date": {
          "name": "Invoice Due Date",
          "signals": [
            "direct_update"
          ]
        },
        "invoice_number": {
          "name": "Invoice Number",
          "signals": [
            "direct_update"
          ]
        },
        "invoice_date": {
          "name": "Invoice Date",
          "signals": [
            "direct_update"
          ]
        },
        "invoice_description": {
          "name": "Invoice Description",
          "signals": [
            "direct_update"
          ]
        }
      },
      "receiver": {
        "vendor_number": {
          "name": "Vendor Number",
          "signals": [
            "direct_update"
          ]
        },
        "po_number": {
          "name": "Purchase Order Number",
          "signals": [
            "direct_update"
          ]
        },
        "tax_total": {
          "name": "Tax",
          "signals": [
            "direct_update"
          ]
        },
        "freight": {
          "name": "Freight",
          "signals": [
            "direct_update"
          ]
        },
        "sub_total": {
          "name": "Subtotal",
          "signals": [
            "direct_update"
          ]
        },
        "total_amount": {
          "name": "Total",
          "signals": [
            "direct_update"
          ]
        },
        "invoice_due_date": {
          "name": "Invoice Due Date",
          "signals": [
            "direct_update"
          ]
        }
      },
      "change_order": {
        "vendor_number": {
          "name": "Vendor Number",
          "signals": [
            "direct_update"
          ]
        },
        "po_number": {
          "name": "Purchase Order Number",
          "signals": [
            "direct_update"
          ]
        },
        "change_order_no": {
          "name": "Change Order Number",
          "signals": [
            "direct_update"
          ]
        },
        "tax_total": {
          "name": "Tax",
          "signals": [
            "direct_update"
          ]
        },
        "freight": {
          "name": "Freight",
          "signals": [
            "direct_update"
          ]
        },
        "sub_total": {
          "name": "Subtotal",
          "signals": [
            "direct_update"
          ]
        },
        "total_amount": {
          "name": "Total",
          "signals": [
            "direct_update"
          ]
        }
      },
      "packing_slip": {
        "vendor_number": {
          "name": "Vendor Number",
          "signals": [
            "direct_update"
          ]
        },
        "po_number": {
          "name": "Purchase Order Number",
          "signals": [
            "direct_update"
          ]
        },
        "invoice_number": {
          "name": "Invoice Number",
          "signals": [
            "direct_update"
          ]
        },
        "remittance_address": {
          "name": "Remittance Address",
          "signals": [
            "direct_update"
          ]
        },
        "payment_terms": {
          "name": "Payment Terms",
          "signals": [
            "direct_update"
          ]
        },
        "tax_total": {
          "name": "Tax",
          "signals": [
            "direct_update"
          ]
        },
        "freight": {
          "name": "Freight",
          "signals": [
            "direct_update"
          ]
        },
        "sub_total": {
          "name": "Subtotal",
          "signals": [
            "direct_update"
          ]
        },
        "total_amount": {
          "name": "Total",
          "signals": [
            "direct_update"
          ]
        }
      }
    },
    "key_fields": {
      "vendor_number": {
        "name": "Vendor Number",
        "default_value": ""
      },
      "po_number": {
        "name": "Purchase Order Number",
        "default_value": ""
      },
      "change_order_no": {
        "name": "Change Order Number",
        "default_value": ""
      },
      "invoice_number": {
        "name": "Invoice Number",
        "default_value": ""
      },
      "invoice_date": {
        "name": "Invoice Date",
        "default_value": ""
      },
      "invoice_due_date": {
        "name": "Invoice Due Date",
        "default_value": ""
      },
      "sub_total": {
        "name": "Subtotal",
        "default_value": "",
        "formatter": "dollar"
      },
      "tax_total": {
        "name": "Tax",
        "default_value": "",
        "formatter": "dollar"
      },
      "freight": {
        "name": "Freight",
        "default_value": "",
        "formatter": "dollar"
      },
      "total_amount": {
        "name": "Total",
        "default_value": "",
        "formatter": "dollar"
      },
      "payment_terms": {
        "name": "Payment Terms",
        "default_value": ""
      },
      "invoice_description": {
        "name": "Invoice Due Date",
        "default_value": ""
      },
      "remittance_address": {
        "name": "Remittance Address",
        "default_value": ""
      }
    },
    "key_field_property": "collection_data"
  },
  "purchase_order": {
    "name": "purchase_order",
    "type": "document",
    "singular": true,
    "receivers": [
      "WorkItem"
    ],
    "organization": "APEX",
    "extraction": "extract_purchase_order"
  },
  "invoice": {
    "name": "invoice",
    "type": "document",
    "singular": true,
    "receivers": [
      "WorkItem"
    ],
    "extraction": "extract_invoice",
    "organization": "APEX"
  },
  "receiver": {
    "name": "receiver",
    "type": "document",
    "singular": true,
    "receivers": [
      "WorkItem"
    ],
    "organization": "APEX",
    "extraction": "extract_receiver"
  },
  "change_order": {
    "name": "change_order",
    "type": "document",
    "singular": true,
    "receivers": [
      "WorkItem"
    ],
    "organization": "APEX",
    "extraction": "extract_change_order"
  },
  "packing_slip": {
    "name": "packing_slip",
    "type": "document",
    "singular": true,
    "receivers": [
      "WorkItem"
    ],
    "organization": "APEX",
    "extraction": "extract_packing_slip"
  }
}
