[
{
  "model": "custom_auth.customuser",
  "pk": 1,
  "fields": {
    "password": "pbkdf2_sha256$150000$6OaW2FqGvpDh$epDA4n2NRxXoEv0w2hrQm9Mq6I6VLuZjCALqIBlNlt4=",
    "last_login": "2021-06-17T01:17:57.912Z",
    "is_superuser": true,
    "username": "peter@nirvedacognition.ai",
    "first_name": "Peter",
    "last_name": "S",
    "is_staff": true,
    "date_joined": "2020-06-17T17:11:38.546Z",
    "email": "peter@nirvedacognition.ai",
    "is_admin": false,
    "is_active": true,
    "role": 1,
    "created_by": null,
    "updated_by": 1,
    "organization": 1,
    "created_at": "2020-06-17T17:11:38.632Z",
    "updated_at": "2021-11-05T10:42:47.403Z",
    "timezone": "Asia/Kolkata",
    "language": "en",
    "user_permissions": [],
    "groups": []
  }
},
{
  "model": "custom_auth.customuser",
  "pk": 9,
  "fields": {
    "password": "pbkdf2_sha256$150000$wM8z7Twdyi0W$m8c928XJGYsTAhhvPw8vvvDMVbwNJGUebxOpyQy9yl0=",
    "last_login": null,
    "is_superuser": false,
    "username": "naveen@nirvedacognition.ai",
    "first_name": "Naveen",
    "last_name": "",
    "is_staff": false,
    "date_joined": "2020-07-21T15:07:42.400Z",
    "email": "naveen@nirvedacognition.ai",
    "is_admin": false,
    "is_active": true,
    "role": 2,
    "created_by": null,
    "updated_by": null,
    "organization": 2,
    "created_at": "2020-07-21T15:07:42.504Z",
    "updated_at": "2020-07-21T15:10:05.252Z",
    "timezone": null,
    "language": null,
    "user_permissions": [],
    "groups": []
  }
},
{
  "model": "custom_auth.customuser",
  "pk": 11,
  "fields": {
    "password": "pbkdf2_sha256$150000$dW0XGsqNQVUD$FeQxPTuRciufoPBxOsE6gy7SYOlm2yWtEVSimhyRvXw=",
    "last_login": null,
    "is_superuser": false,
    "username": "petersegerstrom@kpmg.com.sg",
    "first_name": "Peter",
    "last_name": "S",
    "is_staff": false,
    "date_joined": "2020-07-21T17:58:52.412Z",
    "email": "petersegerstrom@kpmg.com.sg",
    "is_admin": true,
    "is_active": true,
    "role": 1,
    "created_by": 1,
    "updated_by": 11,
    "organization": 2,
    "created_at": "2020-07-21T17:58:52.412Z",
    "updated_at": "2021-04-21T08:46:20.840Z",
    "timezone": "Asia/Kolkata",
    "language": "en",
    "user_permissions": [],
    "groups": []
  }
},
{
  "model": "custom_auth.customuser",
  "pk": 12,
  "fields": {
    "password": "pbkdf2_sha256$150000$wYUbkFF3kyO3$UhFWC2FmkHBY+K20VAUWYda8YJv851LeHq4QjunZHyk=",
    "last_login": null,
    "is_superuser": false,
    "username": "reginachng@kpmg.com.sg",
    "first_name": "Regina",
    "last_name": "Chng",
    "is_staff": false,
    "date_joined": "2020-07-22T02:58:25.077Z",
    "email": "reginachng@kpmg.com.sg",
    "is_admin": true,
    "is_active": true,
    "role": null,
    "created_by": 1,
    "updated_by": 1,
    "organization": 2,
    "created_at": "2020-07-22T02:58:25.077Z",
    "updated_at": "2020-08-25T08:22:03.024Z",
    "timezone": null,
    "language": null,
    "user_permissions": [],
    "groups": []
  }
},
{
  "model": "custom_auth.customuser",
  "pk": 13,
  "fields": {
    "password": "pbkdf2_sha256$150000$AjphVK4wu4qj$3eHSZMVpLD6AS/GFC3m60GY3vF/v3IOC86ATnDoLVJ4=",
    "last_login": null,
    "is_superuser": false,
    "username": "harveykoenig@kpmg.com.sg",
    "first_name": "Harvey",
    "last_name": "Koenig",
    "is_staff": false,
    "date_joined": "2020-07-22T02:59:16.293Z",
    "email": "harveykoenig@kpmg.com.sg",
    "is_admin": true,
    "is_active": true,
    "role": null,
    "created_by": 1,
    "updated_by": 1,
    "organization": 2,
    "created_at": "2020-07-22T02:59:16.293Z",
    "updated_at": "2020-07-24T19:52:00.285Z",
    "timezone": null,
    "language": null,
    "user_permissions": [],
    "groups": []
  }
},
{
  "model": "custom_auth.customuser",
  "pk": 14,
  "fields": {
    "password": "pbkdf2_sha256$150000$NLbBq9OFLhq3$xhyK8BsmYpg2WyezxuhLUiGKkO9Q1o72pKvXYq2QTZ0=",
    "last_login": null,
    "is_superuser": false,
    "username": "testuser@nirvedacognition.ai",
    "first_name": "Test",
    "last_name": "User",
    "is_staff": false,
    "date_joined": "2020-07-22T03:16:17.088Z",
    "email": "testuser@nirvedacognition.ai",
    "is_admin": false,
    "is_active": true,
    "role": null,
    "created_by": 1,
    "updated_by": 1,
    "organization": 2,
    "created_at": "2020-07-22T03:16:17.089Z",
    "updated_at": "2020-08-03T14:57:36.175Z",
    "timezone": null,
    "language": null,
    "user_permissions": [],
    "groups": []
  }
},
{
  "model": "custom_auth.customuser",
  "pk": 15,
  "fields": {
    "password": "pbkdf2_sha256$150000$ovsiccwMBHLz$N3Z0Mvc/p0kRB31+HQOowZKaUw3itZQqPpOQIBiTNSk=",
    "last_login": "2020-08-14T08:15:10.555Z",
    "is_superuser": false,
    "username": "testadmin@nirvedacognition.ai",
    "first_name": "Test2",
    "last_name": "Admin",
    "is_staff": false,
    "date_joined": "2020-07-22T03:16:56.206Z",
    "email": "testadmin@nirvedacognition.ai",
    "is_admin": true,
    "is_active": true,
    "role": null,
    "created_by": 1,
    "updated_by": 1,
    "organization": 2,
    "created_at": "2020-07-22T03:16:56.207Z",
    "updated_at": "2020-08-17T16:38:45.352Z",
    "timezone": null,
    "language": null,
    "user_permissions": [],
    "groups": []
  }
},
{
  "model": "custom_auth.customuser",
  "pk": 16,
  "fields": {
    "password": "pbkdf2_sha256$150000$aeBKvYc0YC5M$3LUHRAla3g1Hun2pb2kceWzXQ/X8MxR9da895UfJKYM=",
    "last_login": "2020-08-31T17:13:12.417Z",
    "is_superuser": true,
    "username": "testsuperadmin@nirvedacognition.ai",
    "first_name": "Test",
    "last_name": "Super Admin",
    "is_staff": true,
    "date_joined": "2020-07-22T03:17:50.457Z",
    "email": "testsuperadmin@nirvedacognition.ai",
    "is_admin": true,
    "is_active": true,
    "role": null,
    "created_by": 1,
    "updated_by": 1,
    "organization": 2,
    "created_at": "2020-07-22T03:17:50.457Z",
    "updated_at": "2020-08-13T21:37:18.999Z",
    "timezone": null,
    "language": null,
    "user_permissions": [],
    "groups": []
  }
},
{
  "model": "custom_auth.customuser",
  "pk": 17,
  "fields": {
    "password": "pbkdf2_sha256$150000$eOZhXaKkTwD5$1UnMAz0sFkuTSyzgERRuZhI1TUk+ZzpwATtpORancKw=",
    "last_login": null,
    "is_superuser": false,
    "username": "fchong@kpmg.com.sg",
    "first_name": "Fooi Man",
    "last_name": "Chong",
    "is_staff": false,
    "date_joined": "2020-07-24T19:31:43.141Z",
    "email": "fchong@kpmg.com.sg",
    "is_admin": false,
    "is_active": true,
    "role": null,
    "created_by": 1,
    "updated_by": 1,
    "organization": 2,
    "created_at": "2020-07-24T19:31:43.141Z",
    "updated_at": "2020-11-09T03:51:54.023Z",
    "timezone": null,
    "language": null,
    "user_permissions": [],
    "groups": []
  }
},
{
  "model": "custom_auth.customuser",
  "pk": 18,
  "fields": {
    "password": "pbkdf2_sha256$150000$fTLC98R1KRcV$M0wlsIIW7bufB6pRLNmJ0R6Ek9/dAZk8C8RE5ekAC+I=",
    "last_login": null,
    "is_superuser": false,
    "username": "karynaw@kpmg.com.sg",
    "first_name": "Karyn",
    "last_name": "Aw",
    "is_staff": false,
    "date_joined": "2020-07-24T19:32:17.858Z",
    "email": "karynaw@kpmg.com.sg",
    "is_admin": false,
    "is_active": true,
    "role": null,
    "created_by": 1,
    "updated_by": 1,
    "organization": 2,
    "created_at": "2020-07-24T19:32:17.858Z",
    "updated_at": "2020-07-24T19:52:30.564Z",
    "timezone": null,
    "language": null,
    "user_permissions": [],
    "groups": []
  }
},
{
  "model": "custom_auth.customuser",
  "pk": 19,
  "fields": {
    "password": "pbkdf2_sha256$150000$FdApnZ0gUvfp$ZjEY+pud6PVxuh2ohcLyumWBFDGLYC5FoSA9Kl2Bof0=",
    "last_login": null,
    "is_superuser": false,
    "username": "liuyang1@kpmg.com.sg",
    "first_name": "Yang",
    "last_name": "Liu",
    "is_staff": false,
    "date_joined": "2020-07-24T19:32:52.321Z",
    "email": "liuyang1@kpmg.com.sg",
    "is_admin": false,
    "is_active": true,
    "role": null,
    "created_by": 1,
    "updated_by": 1,
    "organization": 2,
    "created_at": "2020-07-24T19:32:52.321Z",
    "updated_at": "2020-07-24T19:52:49.290Z",
    "timezone": null,
    "language": null,
    "user_permissions": [],
    "groups": []
  }
},
{
  "model": "custom_auth.customuser",
  "pk": 20,
  "fields": {
    "password": "pbkdf2_sha256$150000$9hvktZD1suRV$+LtUGYZqfN8SNGgwp2d3akDe9oBgXo7W88F2ryIz808=",
    "last_login": null,
    "is_superuser": false,
    "username": "violetkan@kpmg.com.sg",
    "first_name": "Violet",
    "last_name": "Kan",
    "is_staff": false,
    "date_joined": "2020-07-24T19:33:10.088Z",
    "email": "violetkan@kpmg.com.sg",
    "is_admin": false,
    "is_active": true,
    "role": null,
    "created_by": 1,
    "updated_by": 1,
    "organization": 2,
    "created_at": "2020-07-24T19:33:10.088Z",
    "updated_at": "2020-09-16T06:22:26.420Z",
    "timezone": null,
    "language": null,
    "user_permissions": [],
    "groups": []
  }
},
{
  "model": "custom_auth.customuser",
  "pk": 21,
  "fields": {
    "password": "pbkdf2_sha256$150000$d430PCwXdijh$X3sblq4Pv+R4sA+PqaFJcIAzi2848ODoCbG0M2SReOw=",
    "last_login": null,
    "is_superuser": false,
    "username": "kellyzmng@kpmg.com.sg",
    "first_name": "Kelly",
    "last_name": "ZM Ng",
    "is_staff": false,
    "date_joined": "2020-07-24T19:33:43.691Z",
    "email": "kellyzmng@kpmg.com.sg",
    "is_admin": false,
    "is_active": true,
    "role": null,
    "created_by": 1,
    "updated_by": 1,
    "organization": 2,
    "created_at": "2020-07-24T19:33:43.692Z",
    "updated_at": "2020-08-05T01:01:15.223Z",
    "timezone": null,
    "language": null,
    "user_permissions": [],
    "groups": []
  }
},
{
  "model": "custom_auth.customuser",
  "pk": 22,
  "fields": {
    "password": "pbkdf2_sha256$150000$7WFsYBjiREqc$6AK4YtgROMH1w5wJsL9Ie3yURseLdDgefrKMcoxhyDY=",
    "last_login": null,
    "is_superuser": false,
    "username": "kaiyinglee@kpmg.com.sg",
    "first_name": "Kai Ying",
    "last_name": "Lee",
    "is_staff": false,
    "date_joined": "2020-07-24T19:34:07.844Z",
    "email": "kaiyinglee@kpmg.com.sg",
    "is_admin": false,
    "is_active": true,
    "role": null,
    "created_by": 1,
    "updated_by": 1,
    "organization": 2,
    "created_at": "2020-07-24T19:34:07.844Z",
    "updated_at": "2020-07-30T07:59:46.893Z",
    "timezone": null,
    "language": null,
    "user_permissions": [],
    "groups": []
  }
},
{
  "model": "custom_auth.customuser",
  "pk": 23,
  "fields": {
    "password": "pbkdf2_sha256$150000$73jCdw9SFHr1$1OroUt+UkrUnJSrXkcEd8uGwYc201kJo4W5JmXYRUpA=",
    "last_login": null,
    "is_superuser": false,
    "username": "rtjia@kpmg.com.sg",
    "first_name": "rtjia@kpmg.com.sg",
    "last_name": "rtjia@kpmg.com.sg",
    "is_staff": false,
    "date_joined": "2020-07-24T19:34:30.345Z",
    "email": "rtjia@kpmg.com.sg",
    "is_admin": false,
    "is_active": true,
    "role": null,
    "created_by": 1,
    "updated_by": 1,
    "organization": 2,
    "created_at": "2020-07-24T19:34:30.345Z",
    "updated_at": "2020-09-04T09:26:29.910Z",
    "timezone": null,
    "language": null,
    "user_permissions": [],
    "groups": []
  }
},
{
  "model": "custom_auth.customuser",
  "pk": 24,
  "fields": {
    "password": "pbkdf2_sha256$150000$zzWJYv3NshAf$j26upMn++SFj5v07I3IznJo4unTThq1ISPaMBlbevk4=",
    "last_login": null,
    "is_superuser": false,
    "username": "shuweihoo@kpmg.com.sg",
    "first_name": "shuweihoo@kpmg.com.sg",
    "last_name": "shuweihoo@kpmg.com.sg",
    "is_staff": false,
    "date_joined": "2020-07-24T19:34:51.015Z",
    "email": "shuweihoo@kpmg.com.sg",
    "is_admin": false,
    "is_active": true,
    "role": null,
    "created_by": 1,
    "updated_by": 1,
    "organization": 2,
    "created_at": "2020-07-24T19:34:51.015Z",
    "updated_at": "2020-10-04T17:36:35.341Z",
    "timezone": null,
    "language": null,
    "user_permissions": [],
    "groups": []
  }
},
{
  "model": "custom_auth.customuser",
  "pk": 25,
  "fields": {
    "password": "pbkdf2_sha256$150000$NQfAs4NL9NVm$8SXd0E/u6k6PfJjKSGF6ShA/oZr5gNpUFUScVb8H1Z0=",
    "last_login": null,
    "is_superuser": false,
    "username": "shuiyuteo@kpmg.com.sg",
    "first_name": "shuiyuteo@kpmg.com.sg",
    "last_name": "shuiyuteo@kpmg.com.sg",
    "is_staff": false,
    "date_joined": "2020-07-24T19:35:06.445Z",
    "email": "shuiyuteo@kpmg.com.sg",
    "is_admin": false,
    "is_active": true,
    "role": null,
    "created_by": 1,
    "updated_by": 1,
    "organization": 2,
    "created_at": "2020-07-24T19:35:06.445Z",
    "updated_at": "2020-09-06T14:23:46.627Z",
    "timezone": null,
    "language": null,
    "user_permissions": [],
    "groups": []
  }
},
{
  "model": "custom_auth.customuser",
  "pk": 26,
  "fields": {
    "password": "pbkdf2_sha256$150000$Ao7zMXRMlqsA$zPRg6uqsalcJnJtltkszeF5B9N3yp8DmciufltIZLkQ=",
    "last_login": null,
    "is_superuser": false,
    "username": "alexchak@kpmg.com.sg",
    "first_name": "Alex",
    "last_name": "Chak",
    "is_staff": false,
    "date_joined": "2020-07-24T19:35:29.453Z",
    "email": "alexchak@kpmg.com.sg",
    "is_admin": false,
    "is_active": true,
    "role": null,
    "created_by": 1,
    "updated_by": 1,
    "organization": 2,
    "created_at": "2020-07-24T19:35:29.454Z",
    "updated_at": "2020-07-24T21:54:44.423Z",
    "timezone": null,
    "language": null,
    "user_permissions": [],
    "groups": []
  }
},
{
  "model": "custom_auth.customuser",
  "pk": 27,
  "fields": {
    "password": "pbkdf2_sha256$150000$0EpCpL9NPE1t$aPSXKjWuZqEC+K7PZKtVA9h//pD3IYdzRwvgAtFntLc=",
    "last_login": null,
    "is_superuser": false,
    "username": "kaiyinggu@kpmg.com.sg",
    "first_name": "Kai Ying",
    "last_name": "Gu",
    "is_staff": false,
    "date_joined": "2020-07-24T19:36:42.315Z",
    "email": "kaiyinggu@kpmg.com.sg",
    "is_admin": false,
    "is_active": true,
    "role": null,
    "created_by": 1,
    "updated_by": 1,
    "organization": 2,
    "created_at": "2020-07-24T19:36:42.315Z",
    "updated_at": "2020-07-24T21:54:55.840Z",
    "timezone": null,
    "language": null,
    "user_permissions": [],
    "groups": []
  }
},
{
  "model": "custom_auth.customuser",
  "pk": 28,
  "fields": {
    "password": "pbkdf2_sha256$150000$8McuFMbKKaEJ$DoG0ftMrW9iO5ORTtxwaIRGyb9WfbX0jN/Mr1XmVJvo=",
    "last_login": null,
    "is_superuser": false,
    "username": "janelhe@kpmg.com.sg",
    "first_name": "janelhe@kpmg.com.sg",
    "last_name": "janelhe@kpmg.com.sg",
    "is_staff": false,
    "date_joined": "2020-07-24T19:36:56.432Z",
    "email": "janelhe@kpmg.com.sg",
    "is_admin": false,
    "is_active": true,
    "role": null,
    "created_by": 1,
    "updated_by": 1,
    "organization": 2,
    "created_at": "2020-07-24T19:36:56.432Z",
    "updated_at": "2020-09-02T01:02:08.077Z",
    "timezone": null,
    "language": null,
    "user_permissions": [],
    "groups": []
  }
},
{
  "model": "custom_auth.customuser",
  "pk": 29,
  "fields": {
    "password": "pbkdf2_sha256$150000$nHmmn2CGXeLy$oZcKMvFeM3TYujfOLGpMB+xS9vsFhbjPO0ommb56pe4=",
    "last_login": null,
    "is_superuser": false,
    "username": "wchatupromwong@kpmg.com.sg",
    "first_name": "wchatupromwong@kpmg.com.sg",
    "last_name": "wchatupromwong@kpmg.com.sg",
    "is_staff": false,
    "date_joined": "2020-07-24T19:37:09.881Z",
    "email": "wchatupromwong@kpmg.com.sg",
    "is_admin": false,
    "is_active": true,
    "role": null,
    "created_by": 1,
    "updated_by": 1,
    "organization": 2,
    "created_at": "2020-07-24T19:37:09.882Z",
    "updated_at": "2020-09-04T06:44:04.637Z",
    "timezone": null,
    "language": null,
    "user_permissions": [],
    "groups": []
  }
},
{
  "model": "custom_auth.customuser",
  "pk": 30,
  "fields": {
    "password": "pbkdf2_sha256$150000$TVXPozt1xhBr$Y1nh13swfqsJTatoZCmHQQT7pMdopZHTvfEB4Js/NFQ=",
    "last_login": null,
    "is_superuser": false,
    "username": "jtan19@kpmg.com.sg",
    "first_name": "jtan19@kpmg.com.sg",
    "last_name": "jtan19@kpmg.com.sg",
    "is_staff": false,
    "date_joined": "2020-07-24T19:37:33.427Z",
    "email": "jtan19@kpmg.com.sg",
    "is_admin": false,
    "is_active": true,
    "role": null,
    "created_by": 1,
    "updated_by": 1,
    "organization": 2,
    "created_at": "2020-07-24T19:37:33.428Z",
    "updated_at": "2020-09-04T04:04:30.233Z",
    "timezone": null,
    "language": null,
    "user_permissions": [],
    "groups": []
  }
},
{
  "model": "custom_auth.customuser",
  "pk": 31,
  "fields": {
    "password": "pbkdf2_sha256$150000$REcv9FnPi12D$XZierX4h/Zhh0wShkwvaTX3S4XRUzwgjutyKHcN6bUA=",
    "last_login": null,
    "is_superuser": false,
    "username": "heidyyeo@kpmg.com.sg",
    "first_name": "Heidy",
    "last_name": "Yeo",
    "is_staff": false,
    "date_joined": "2020-07-24T19:38:14.441Z",
    "email": "heidyyeo@kpmg.com.sg",
    "is_admin": false,
    "is_active": true,
    "role": null,
    "created_by": 1,
    "updated_by": 1,
    "organization": 2,
    "created_at": "2020-07-24T19:38:14.441Z",
    "updated_at": "2020-09-01T07:52:10.844Z",
    "timezone": null,
    "language": null,
    "user_permissions": [],
    "groups": []
  }
},
{
  "model": "custom_auth.customuser",
  "pk": 32,
  "fields": {
    "password": "pbkdf2_sha256$150000$Lqun2Gxm83nk$Ct0kIY67m7bdF4McyWgmKWr1Yax2HV1PQfMnAo09aU8=",
    "last_login": null,
    "is_superuser": false,
    "username": "melvinkoh@kpmg.com.sg",
    "first_name": "Melvin",
    "last_name": "Koh",
    "is_staff": false,
    "date_joined": "2020-07-24T19:38:39.942Z",
    "email": "melvinkoh@kpmg.com.sg",
    "is_admin": false,
    "is_active": true,
    "role": null,
    "created_by": 1,
    "updated_by": 1,
    "organization": 2,
    "created_at": "2020-07-24T19:38:39.943Z",
    "updated_at": "2020-07-24T21:55:38.699Z",
    "timezone": null,
    "language": null,
    "user_permissions": [],
    "groups": []
  }
},
{
  "model": "custom_auth.customuser",
  "pk": 33,
  "fields": {
    "password": "pbkdf2_sha256$150000$MmbnKVi51TTu$cmZYdP9w7mzNfvqNr8/MuQJloBC1SjtCbTkz9Wnqs3k=",
    "last_login": null,
    "is_superuser": false,
    "username": "darylhztan@kpmg.com.sg",
    "first_name": "Daryl",
    "last_name": "Hztan",
    "is_staff": false,
    "date_joined": "2020-07-24T19:39:11.289Z",
    "email": "darylhztan@kpmg.com.sg",
    "is_admin": false,
    "is_active": true,
    "role": null,
    "created_by": 1,
    "updated_by": 1,
    "organization": 2,
    "created_at": "2020-07-24T19:39:11.290Z",
    "updated_at": "2020-09-04T06:17:59.787Z",
    "timezone": null,
    "language": null,
    "user_permissions": [],
    "groups": []
  }
},
{
  "model": "custom_auth.customuser",
  "pk": 34,
  "fields": {
    "password": "pbkdf2_sha256$150000$CeeoSTsaDK2h$/KrPizckW4EsEQpuD3Hf8T3ffD9Jd1KwZ7ImgUmnvHo=",
    "last_login": null,
    "is_superuser": false,
    "username": "wsee@kpmg.com.sg",
    "first_name": "wsee@kpmg.com.sg",
    "last_name": "wsee@kpmg.com.sg",
    "is_staff": false,
    "date_joined": "2020-07-24T19:39:33.034Z",
    "email": "wsee@kpmg.com.sg",
    "is_admin": false,
    "is_active": true,
    "role": null,
    "created_by": 1,
    "updated_by": 1,
    "organization": 2,
    "created_at": "2020-07-24T19:39:33.035Z",
    "updated_at": "2020-08-04T13:22:09.226Z",
    "timezone": null,
    "language": null,
    "user_permissions": [],
    "groups": []
  }
},
{
  "model": "custom_auth.customuser",
  "pk": 35,
  "fields": {
    "password": "pbkdf2_sha256$150000$X1hDqLiZmajP$yvbdhb05KapczwhizHvLL7ANYvOhFJv4yqg456QtU5Q=",
    "last_login": null,
    "is_superuser": false,
    "username": "weironglee@kpmg.com.sg",
    "first_name": "weironglee@kpmg.com.sg",
    "last_name": "weironglee@kpmg.com.sg",
    "is_staff": false,
    "date_joined": "2020-07-24T19:39:56.427Z",
    "email": "weironglee@kpmg.com.sg",
    "is_admin": false,
    "is_active": true,
    "role": null,
    "created_by": 1,
    "updated_by": 1,
    "organization": 2,
    "created_at": "2020-07-24T19:39:56.427Z",
    "updated_at": "2020-09-03T01:42:27.409Z",
    "timezone": null,
    "language": null,
    "user_permissions": [],
    "groups": []
  }
},
{
  "model": "custom_auth.customuser",
  "pk": 36,
  "fields": {
    "password": "pbkdf2_sha256$150000$xTleFf5nIA1T$bjYx0twu2jkjdi9zmkPJ9zZyWDWMv4gwL0TGRUCdJ78=",
    "last_login": null,
    "is_superuser": false,
    "username": "rogerlee@kpmg.com.sg",
    "first_name": "Roger",
    "last_name": "Lee",
    "is_staff": false,
    "date_joined": "2020-07-27T15:30:22.611Z",
    "email": "rogerlee@kpmg.com.sg",
    "is_admin": false,
    "is_active": true,
    "role": null,
    "created_by": 1,
    "updated_by": 1,
    "organization": 2,
    "created_at": "2020-07-27T15:30:22.611Z",
    "updated_at": "2020-07-27T15:34:39.441Z",
    "timezone": null,
    "language": null,
    "user_permissions": [],
    "groups": []
  }
},
{
  "model": "custom_auth.customuser",
  "pk": 37,
  "fields": {
    "password": "pbkdf2_sha256$150000$vnh2Hcsc0yzs$cJQOROtQe8XvNGaVH3yLdxmU4Jy9VYmiWnqylcNOmMw=",
    "last_login": null,
    "is_superuser": false,
    "username": "ilonachan@kpmg.com.sg",
    "first_name": "Ilona",
    "last_name": "Chan",
    "is_staff": false,
    "date_joined": "2020-07-27T15:31:39.518Z",
    "email": "ilonachan@kpmg.com.sg",
    "is_admin": false,
    "is_active": true,
    "role": null,
    "created_by": 1,
    "updated_by": 1,
    "organization": 2,
    "created_at": "2020-07-27T15:31:39.518Z",
    "updated_at": "2020-07-29T01:08:46.126Z",
    "timezone": null,
    "language": null,
    "user_permissions": [],
    "groups": []
  }
},
{
  "model": "custom_auth.customuser",
  "pk": 38,
  "fields": {
    "password": "",
    "last_login": null,
    "is_superuser": false,
    "username": "jialetoh@kpmg.com.sg",
    "first_name": "Toh",
    "last_name": "Jia Le",
    "is_staff": false,
    "date_joined": "2020-07-27T15:32:10.949Z",
    "email": "jialetoh@kpmg.com.sg",
    "is_admin": false,
    "is_active": true,
    "role": null,
    "created_by": 1,
    "updated_by": 1,
    "organization": 2,
    "created_at": "2020-07-27T15:32:10.949Z",
    "updated_at": "2020-07-27T15:32:10.965Z",
    "timezone": null,
    "language": null,
    "user_permissions": [],
    "groups": []
  }
},
{
  "model": "custom_auth.customuser",
  "pk": 39,
  "fields": {
    "password": "pbkdf2_sha256$150000$ysJr9BLVZGzH$Bn304Rsi6D/k/pGFTwkxlABk3RbG8ereE+v4AASkBEw=",
    "last_login": null,
    "is_superuser": false,
    "username": "amandayew@kpmg.com.sg",
    "first_name": "Amanda",
    "last_name": "Yew",
    "is_staff": false,
    "date_joined": "2020-07-27T15:32:30.633Z",
    "email": "amandayew@kpmg.com.sg",
    "is_admin": false,
    "is_active": true,
    "role": null,
    "created_by": 1,
    "updated_by": 1,
    "organization": 2,
    "created_at": "2020-07-27T15:32:30.634Z",
    "updated_at": "2020-09-09T09:18:25.531Z",
    "timezone": null,
    "language": null,
    "user_permissions": [],
    "groups": []
  }
},
{
  "model": "custom_auth.customuser",
  "pk": 40,
  "fields": {
    "password": "pbkdf2_sha256$150000$M7KBzGZr6et0$aw3w2YT5DU41gvzHH2b1FxotNRt8y+q69/kPit4ePeo=",
    "last_login": null,
    "is_superuser": false,
    "username": "xuanmingtan@kpmg.com.sg",
    "first_name": "Tan",
    "last_name": "Xuan Ming",
    "is_staff": false,
    "date_joined": "2020-07-27T15:33:16.724Z",
    "email": "xuanmingtan@kpmg.com.sg",
    "is_admin": false,
    "is_active": true,
    "role": null,
    "created_by": 1,
    "updated_by": 1,
    "organization": 2,
    "created_at": "2020-07-27T15:33:16.725Z",
    "updated_at": "2020-07-28T01:13:03.033Z",
    "timezone": null,
    "language": null,
    "user_permissions": [],
    "groups": []
  }
},
{
  "model": "custom_auth.customuser",
  "pk": 41,
  "fields": {
    "password": "",
    "last_login": null,
    "is_superuser": false,
    "username": "some1@somewhere.kpmg.com",
    "first_name": "PenTest_FN",
    "last_name": "PenTest_LN",
    "is_staff": false,
    "date_joined": "2020-07-31T12:52:08.181Z",
    "email": "some1@somewhere.kpmg.com",
    "is_admin": false,
    "is_active": false,
    "role": null,
    "created_by": 15,
    "updated_by": 15,
    "organization": 2,
    "created_at": "2020-07-31T12:52:08.181Z",
    "updated_at": "2020-07-31T12:56:34.264Z",
    "timezone": null,
    "language": null,
    "user_permissions": [],
    "groups": []
  }
},
{
  "model": "custom_auth.customuser",
  "pk": 42,
  "fields": {
    "password": "",
    "last_login": null,
    "is_superuser": false,
    "username": "some1@somewhere.kpmg.comuos9wbsnzm",
    "first_name": "PenTest_FN",
    "last_name": "PenTest_LN",
    "is_staff": false,
    "date_joined": "2020-07-31T13:13:49.949Z",
    "email": "some1@somewhere.kpmg.comuos9wbsnzm",
    "is_admin": false,
    "is_active": false,
    "role": null,
    "created_by": 15,
    "updated_by": 15,
    "organization": 2,
    "created_at": "2020-07-31T13:13:49.950Z",
    "updated_at": "2020-07-31T13:44:00.262Z",
    "timezone": null,
    "language": null,
    "user_permissions": [],
    "groups": []
  }
},
{
  "model": "custom_auth.customuser",
  "pk": 43,
  "fields": {
    "password": "",
    "last_login": null,
    "is_superuser": false,
    "username": "user@ji5ice0w3gj3wqr130ph2hqfy642stglb92zprdg.burpcollaborator.net",
    "first_name": "PenTest_FN",
    "last_name": "PenTest_LN",
    "is_staff": false,
    "date_joined": "2020-07-31T13:15:33.471Z",
    "email": "user@ji5ice0w3gj3wqr130ph2hqfy642stglb92zprdg.burpcollaborator.net",
    "is_admin": false,
    "is_active": false,
    "role": null,
    "created_by": 15,
    "updated_by": 15,
    "organization": 2,
    "created_at": "2020-07-31T13:15:33.472Z",
    "updated_at": "2020-07-31T13:44:40.320Z",
    "timezone": null,
    "language": null,
    "user_permissions": [],
    "groups": []
  }
},
{
  "model": "custom_auth.customuser",
  "pk": 44,
  "fields": {
    "password": "",
    "last_login": null,
    "is_superuser": true,
    "username": "tibor.branstetter@kpmg.hu",
    "first_name": "Teeb",
    "last_name": "",
    "is_staff": true,
    "date_joined": "2020-08-03T07:37:27.842Z",
    "email": "tibor.branstetter@kpmg.hu",
    "is_admin": false,
    "is_active": false,
    "role": null,
    "created_by": 16,
    "updated_by": 16,
    "organization": 2,
    "created_at": "2020-08-03T07:37:27.843Z",
    "updated_at": "2020-08-03T07:38:17.070Z",
    "timezone": null,
    "language": null,
    "user_permissions": [],
    "groups": []
  }
},
{
  "model": "custom_auth.customuser",
  "pk": 45,
  "fields": {
    "password": "",
    "last_login": null,
    "is_superuser": false,
    "username": "ccc@kpmg.com",
    "first_name": "aaa",
    "last_name": "bbb",
    "is_staff": false,
    "date_joined": "2020-08-17T16:24:49.466Z",
    "email": "ccc@kpmg.com",
    "is_admin": true,
    "is_active": true,
    "role": null,
    "created_by": 15,
    "updated_by": 15,
    "organization": 2,
    "created_at": "2020-08-17T16:24:49.466Z",
    "updated_at": "2020-08-17T16:24:49.482Z",
    "timezone": null,
    "language": null,
    "user_permissions": [],
    "groups": []
  }
},
{
  "model": "custom_auth.customuser",
  "pk": 46,
  "fields": {
    "password": "",
    "last_login": null,
    "is_superuser": false,
    "username": "fff@kpmg.hu",
    "first_name": "ddd",
    "last_name": "eee",
    "is_staff": false,
    "date_joined": "2020-08-17T16:47:54.939Z",
    "email": "fff@kpmg.hu",
    "is_admin": true,
    "is_active": true,
    "role": null,
    "created_by": 15,
    "updated_by": 15,
    "organization": 2,
    "created_at": "2020-08-17T16:47:54.939Z",
    "updated_at": "2020-08-17T16:47:54.956Z",
    "timezone": null,
    "language": null,
    "user_permissions": [],
    "groups": []
  }
},
{
  "model": "custom_auth.customuser",
  "pk": 47,
  "fields": {
    "password": "pbkdf2_sha256$150000$AYZodC9pEIPQ$qtWUi4Ni9xW+N2b3oNDNS1rEFrz6OeztIhxNWO1Ikoo=",
    "last_login": null,
    "is_superuser": true,
    "username": "chad@nirvedacognition.ai",
    "first_name": "Chad",
    "last_name": "Wagner",
    "is_staff": true,
    "date_joined": "2020-08-20T00:46:27.651Z",
    "email": "chad@nirvedacognition.ai",
    "is_admin": true,
    "is_active": true,
    "role": 2,
    "created_by": null,
    "updated_by": null,
    "organization": 1,
    "created_at": "2020-08-20T00:46:27.761Z",
    "updated_at": "2020-08-20T01:08:53.129Z",
    "timezone": null,
    "language": null,
    "user_permissions": [],
    "groups": []
  }
},
{
  "model": "custom_auth.customuser",
  "pk": 48,
  "fields": {
    "password": "pbkdf2_sha256$150000$PbQ7x8Jccfou$xqgTbz0afUiPuh0tqNBe1a+gBhFdCltZcnBCvLRulxY=",
    "last_login": null,
    "is_superuser": false,
    "username": "chad+kpmg@nirvedacognition.ai",
    "first_name": "Chad",
    "last_name": "Wagner",
    "is_staff": false,
    "date_joined": "2020-08-20T01:12:39.000Z",
    "email": "chad+kpmg@nirvedacognition.ai",
    "is_admin": true,
    "is_active": true,
    "role": 2,
    "created_by": null,
    "updated_by": null,
    "organization": 2,
    "created_at": "2020-08-20T01:12:39.133Z",
    "updated_at": "2020-08-20T01:14:14.224Z",
    "timezone": null,
    "language": null,
    "user_permissions": [],
    "groups": []
  }
},
{
  "model": "custom_auth.customuser",
  "pk": 49,
  "fields": {
    "password": "pbkdf2_sha256$150000$cv28vCL2J9kX$C2Vpt7rb2FzhOOq/7QufpOsfX1TvX5x3Z4NYV38Vruo=",
    "last_login": null,
    "is_superuser": false,
    "username": "tinghuitan@kpmg.com.sg",
    "first_name": "Tan",
    "last_name": "Ting Hui",
    "is_staff": false,
    "date_joined": "2020-09-03T15:16:18.864Z",
    "email": "tinghuitan@kpmg.com.sg",
    "is_admin": false,
    "is_active": true,
    "role": null,
    "created_by": 1,
    "updated_by": 1,
    "organization": 2,
    "created_at": "2020-09-03T15:16:18.865Z",
    "updated_at": "2020-09-29T08:11:08.651Z",
    "timezone": null,
    "language": null,
    "user_permissions": [],
    "groups": []
  }
},
{
  "model": "custom_auth.customuser",
  "pk": 50,
  "fields": {
    "password": "pbkdf2_sha256$150000$MPRv1HjVS6pH$KcjYxeYPgQYgkYfoYB/4u4WbPwShog8jCvVjawUuXdY=",
    "last_login": null,
    "is_superuser": false,
    "username": "amandasiew@kpmg.com.sg",
    "first_name": "Amanda",
    "last_name": "Siew",
    "is_staff": false,
    "date_joined": "2020-09-15T18:45:31.930Z",
    "email": "amandasiew@kpmg.com.sg",
    "is_admin": false,
    "is_active": true,
    "role": null,
    "created_by": 1,
    "updated_by": 1,
    "organization": 2,
    "created_at": "2020-09-15T18:45:31.931Z",
    "updated_at": "2020-10-22T02:09:25.242Z",
    "timezone": null,
    "language": null,
    "user_permissions": [],
    "groups": []
  }
},
{
  "model": "custom_auth.customuser",
  "pk": 51,
  "fields": {
    "password": "pbkdf2_sha256$150000$kLlWneCJqSnI$HNedx+v0EL9jhIMBkt2vqcPyVC0mWWNmIx9rzO3YYvE=",
    "last_login": null,
    "is_superuser": false,
    "username": "rachellum@kpmg.com.sg",
    "first_name": "Rachel",
    "last_name": "Lum",
    "is_staff": false,
    "date_joined": "2020-09-25T16:13:27.523Z",
    "email": "rachellum@kpmg.com.sg",
    "is_admin": false,
    "is_active": true,
    "role": null,
    "created_by": 1,
    "updated_by": 1,
    "organization": 2,
    "created_at": "2020-09-25T16:13:27.523Z",
    "updated_at": "2020-09-25T16:56:42.975Z",
    "timezone": null,
    "language": null,
    "user_permissions": [],
    "groups": []
  }
},
{
  "model": "custom_auth.customuser",
  "pk": 52,
  "fields": {
    "password": "pbkdf2_sha256$150000$qUCBt4yxScnB$KGe2V/e9u8I8MXLtv4JFR1QJsRYE2DlM23oNZNm+fdQ=",
    "last_login": null,
    "is_superuser": false,
    "username": "saranya+qa@nirvedacognition.ai",
    "first_name": "Saranya",
    "last_name": "D",
    "is_staff": false,
    "date_joined": "2021-02-09T03:15:54.690Z",
    "email": "saranya+qa@nirvedacognition.ai",
    "is_admin": true,
    "is_active": true,
    "role": 2,
    "created_by": 1,
    "updated_by": 1,
    "organization": 1,
    "created_at": "2021-02-09T03:15:54.691Z",
    "updated_at": "2021-02-09T10:02:24.422Z",
    "timezone": null,
    "language": null,
    "user_permissions": [],
    "groups": []
  }
},
{
  "model": "custom_auth.customuser",
  "pk": 53,
  "fields": {
    "password": "",
    "last_login": null,
    "is_superuser": true,
    "username": "kushagra+qa@nirvedacognition.ai",
    "first_name": "Kushagra",
    "last_name": "J",
    "is_staff": false,
    "date_joined": "2021-02-09T03:17:31.077Z",
    "email": "kushagra+qa@nirvedacognition.ai",
    "is_admin": true,
    "is_active": true,
    "role": 2,
    "created_by": 1,
    "updated_by": 1,
    "organization": 1,
    "created_at": "2021-02-09T03:17:31.078Z",
    "updated_at": "2021-04-13T03:37:43.032Z",
    "timezone": null,
    "language": null,
    "user_permissions": [],
    "groups": []
  }
},
{
  "model": "custom_auth.customuser",
  "pk": 54,
  "fields": {
    "password": "",
    "last_login": null,
    "is_superuser": false,
    "username": "rishi@nirvedacognition.ai",
    "first_name": "Rishi",
    "last_name": "M",
    "is_staff": false,
    "date_joined": "2021-02-24T17:44:14.180Z",
    "email": "rishi@nirvedacognition.ai",
    "is_admin": true,
    "is_active": true,
    "role": 2,
    "created_by": 1,
    "updated_by": 1,
    "organization": 1,
    "created_at": "2021-02-24T17:44:14.180Z",
    "updated_at": "2021-02-24T17:44:14.180Z",
    "timezone": null,
    "language": null,
    "user_permissions": [],
    "groups": []
  }
},
{
  "model": "custom_auth.customuser",
  "pk": 55,
  "fields": {
    "password": "pbkdf2_sha256$150000$lvt5PcC5Q7Di$J4a/n9K5pWNxZ6imdX9vCq2Q2mRSBZIeldSiRkBUr4o=",
    "last_login": null,
    "is_superuser": false,
    "username": "zenabek@kpmg.com.sg",
    "first_name": "Zena",
    "last_name": "Bek",
    "is_staff": false,
    "date_joined": "2021-03-12T03:21:33.854Z",
    "email": "zenabek@kpmg.com.sg",
    "is_admin": false,
    "is_active": true,
    "role": 1,
    "created_by": 1,
    "updated_by": 1,
    "organization": 2,
    "created_at": "2021-03-12T03:21:33.854Z",
    "updated_at": "2021-03-12T03:38:24.487Z",
    "timezone": null,
    "language": null,
    "user_permissions": [],
    "groups": []
  }
},
{
  "model": "custom_auth.customuser",
  "pk": 66,
  "fields": {
    "password": "pbkdf2_sha256$150000$et2ZtlOly8uV$aaVC1Z5NnqiWPDx7yBk9jnmgyureZ3TmbR9awKD9Ac8=",
    "last_login": "2021-10-13T10:04:27.309Z",
    "is_superuser": true,
    "username": "kushagra@nirvedacognition.ai",
    "first_name": "Peter",
    "last_name": "S",
    "is_staff": true,
    "date_joined": "2021-07-16T12:10:30.059Z",
    "email": "kushagra@nirvedacognition.ai",
    "is_admin": false,
    "is_active": true,
    "role": 1,
    "created_by": null,
    "updated_by": 66,
    "organization": 1,
    "created_at": "2021-07-16T12:10:30.264Z",
    "updated_at": "2021-10-11T01:59:20.052Z",
    "timezone": "Asia/Kolkata",
    "language": "en",
    "user_permissions": [],
    "groups": []
  }
},
{
  "model": "custom_auth.customuser",
  "pk": 67,
  "fields": {
    "password": "",
    "last_login": null,
    "is_superuser": false,
    "username": "kushagra+test@nirvedacognition.ai",
    "first_name": "Kushagra",
    "last_name": "Jindal",
    "is_staff": false,
    "date_joined": "2021-07-26T09:29:33.814Z",
    "email": "kushagra+test@nirvedacognition.ai",
    "is_admin": false,
    "is_active": true,
    "role": 1,
    "created_by": 1,
    "updated_by": 1,
    "organization": 1,
    "created_at": "2021-07-26T09:29:33.815Z",
    "updated_at": "2021-07-26T09:29:33.815Z",
    "timezone": null,
    "language": null,
    "user_permissions": [],
    "groups": []
  }
},
{
  "model": "custom_auth.customuser",
  "pk": 68,
  "fields": {
    "password": "pbkdf2_sha256$150000$OCV07taSvLES$nLu2wWppFQFgN5lFnQTSYCKZyqZ+TVOR/OU8dT5YPWM=",
    "last_login": null,
    "is_superuser": false,
    "username": "weekiatyeow@kpmg.com.sg",
    "first_name": "Wee",
    "last_name": "Kiat",
    "is_staff": false,
    "date_joined": "2021-09-15T03:30:09.022Z",
    "email": "weekiatyeow@kpmg.com.sg",
    "is_admin": false,
    "is_active": true,
    "role": 1,
    "created_by": 66,
    "updated_by": 66,
    "organization": 2,
    "created_at": "2021-09-15T03:30:09.022Z",
    "updated_at": "2021-09-27T06:32:11.642Z",
    "timezone": null,
    "language": null,
    "user_permissions": [],
    "groups": []
  }
},
{
  "model": "custom_auth.customuser",
  "pk": 69,
  "fields": {
    "password": "pbkdf2_sha256$150000$lgEmyX0J3mYd$gxk4d780gCpIK3DHXjOb8ZPv+2r1K6F9d/7G84RdMK4=",
    "last_login": "2021-11-29T11:17:26.817Z",
    "is_superuser": true,
    "username": "kiran@nirvedacognition.ai",
    "first_name": "",
    "last_name": "",
    "is_staff": true,
    "date_joined": "2021-11-22T11:39:59.921Z",
    "email": "kiran@nirvedacognition.ai",
    "is_admin": true,
    "is_active": true,
    "role": 2,
    "created_by": null,
    "updated_by": null,
    "organization": 1,
    "created_at": "2021-11-22T11:40:00.034Z",
    "updated_at": "2021-11-22T11:43:25.800Z",
    "timezone": null,
    "language": null,
    "user_permissions": [],
    "groups": []
  }
},
{
  "model": "custom_auth.customuser",
  "pk": 70,
  "fields": {
    "password": "pbkdf2_sha256$150000$XbPjqMkssDzs$DsvF8NUs8kv8Cq7ywAboWtxhV3gdbmB+r6frKFR+pvs=",
    "last_login": null,
    "is_superuser": true,
    "username": "kunal+qa+admin",
    "first_name": "",
    "last_name": "",
    "is_staff": true,
    "date_joined": "2021-11-22T11:45:57.331Z",
    "email": "kunal@nirvedacognition.ai",
    "is_admin": true,
    "is_active": true,
    "role": 2,
    "created_by": null,
    "updated_by": null,
    "organization": 1,
    "created_at": "2021-11-22T11:45:57.483Z",
    "updated_at": "2021-11-22T11:46:23.582Z",
    "timezone": null,
    "language": null,
    "user_permissions": [],
    "groups": []
  }
}
]
