[
  {
    "model": "document.document",
    "pk": 1,
    "fields": {
      "created_at": "2019-10-23T05:55:02.877Z",
      "updated_at": "2019-11-19T22:20:13.134Z",
      "organization_id": 1,
      "creator_id": 1,
      "owner_id": 1,
      "document_status": 4,
      "name": "ai.nirveda",
      "type": "nirveda",
      "path": "/peter test"
    }
  },
  {
    "model": "document.document",
    "pk": 2,
    "fields": {
      "created_at": "2019-10-23T05:55:02.877Z",
      "updated_at": "2019-11-19T22:20:13.134Z",
      "organization_id": 1,
      "creator_id": 1,
      "owner_id": 1,
      "document_status": 4,
      "name": "ai.nirveda",
      "type": "nirveda",
      "path": "/peter test/test one"
    }
  },
  {
    "model": "document.document",
    "pk": 3,
    "fields": {
      "created_at": "2019-10-23T05:55:02.877Z",
      "updated_at": "2019-11-19T22:20:13.134Z",
      "organization_id": 1,
      "creator_id": 1,
      "owner_id": 1,
      "document_status": 1,
      "name": "New thing.pdf",
      "type": "",
      "path": "/peter test/test one"
    }
  },
  {
    "model": "document.document",
    "pk": 4,
    "fields": {
      "created_at": "2019-10-23T05:55:02.877Z",
      "updated_at": "2019-11-19T22:20:13.134Z",
      "organization_id": 1,
      "creator_id": 1,
      "owner_id": 1,
      "document_status": 1,
      "name": "Other thing.pdf",
      "type": "",
      "path": "/peter test"
    }
  },
  {
    "model": "document.document",
    "pk": 5,
    "fields": {
      "created_at": "2019-10-23T05:55:02.877Z",
      "updated_at": "2019-11-19T22:20:13.134Z",
      "organization_id": 1,
      "creator_id": 1,
      "owner_id": 1,
      "document_status": 4,
      "name": "ai.nirveda",
      "type": "nirveda",
      "path": "/peter test/test 2/another good/ok find/ get it girl"
    }
  },
  {
    "model": "document.document",
    "pk": 6,
    "fields": {
      "created_at": "2019-10-23T05:55:02.877Z",
      "updated_at": "2019-11-19T22:20:13.134Z",
      "organization_id": 1,
      "creator_id": 1,
      "owner_id": 1,
      "document_status": 1,
      "name": "New thing 2.pdf",
      "type": "",
      "path": ""
    }
  },
  {
    "model": "document.document",
    "pk": 7,
    "fields": {
      "created_at": "2019-10-23T05:55:02.877Z",
      "updated_at": "2019-11-19T22:20:13.134Z",
      "organization_id": 1,
      "creator_id": 1,
      "owner_id": 1,
      "document_status": 1,
      "name": "Another thing 2.pdf",
      "type": "",
      "path": "/peter test/test 2/another good/ok find"
    }
  }

]
